<?xml version="1.0" encoding="UTF-8" standalone="no"?>
<!-- Created with Inkscape (http://www.inkscape.org/) -->

<svg
   width="400mm"
   height="300mm"
   viewBox="0 0 400 300"
   version="1.1"
   id="svg5"
   inkscape:version="1.2.1 (9c6d41e410, 2022-07-14)"
   sodipodi:docname="slide-memoire-interne-registres2.svg"
   xml:space="preserve"
   xmlns:inkscape="http://www.inkscape.org/namespaces/inkscape"
   xmlns:sodipodi="http://sodipodi.sourceforge.net/DTD/sodipodi-0.dtd"
   xmlns="http://www.w3.org/2000/svg"
   xmlns:svg="http://www.w3.org/2000/svg"><sodipodi:namedview
     id="namedview7"
     pagecolor="#ffffff"
     bordercolor="#999999"
     borderopacity="1"
     inkscape:showpageshadow="0"
     inkscape:pageopacity="0"
     inkscape:pagecheckerboard="0"
     inkscape:deskcolor="#d1d1d1"
     inkscape:document-units="mm"
     showgrid="false"
     inkscape:zoom="0.55244701"
     inkscape:cx="361.12061"
     inkscape:cy="529.46255"
     inkscape:window-width="1916"
     inkscape:window-height="1032"
     inkscape:window-x="1920"
     inkscape:window-y="22"
     inkscape:window-maximized="1"
     inkscape:current-layer="layer1" /><defs
     id="defs2"><rect
       x="455.53807"
       y="1002.7096"
       width="362.55333"
       height="81.218572"
       id="rect109874" /><rect
       x="114.6643"
       y="950.16216"
       width="200.94723"
       height="147.30803"
       id="rect106238" /><marker
       style="overflow:visible"
       id="marker35172"
       refX="0"
       refY="0"
       orient="auto-start-reverse"
       inkscape:stockid="RoundedArrow"
       markerWidth="6.1347523"
       markerHeight="5.9304953"
       viewBox="0 0 6.1347524 5.9304951"
       inkscape:isstock="true"
       inkscape:collect="always"
       preserveAspectRatio="xMidYMid"><path
         transform="scale(0.7)"
         d="m -0.21114562,-4.1055728 6.42229122,3.21114561 a 1,1 90 0 1 0,1.78885438 L -0.21114562,4.1055728 A 1.236068,1.236068 31.717474 0 1 -2,3 v -6 a 1.236068,1.236068 148.28253 0 1 1.78885438,-1.1055728 z"
         style="fill:context-stroke;fill-rule:evenodd;stroke:none"
         id="path35170" /></marker><marker
       style="overflow:visible"
       id="RoundedArrow-2"
       refX="0"
       refY="0"
       orient="auto-start-reverse"
       inkscape:stockid="RoundedArrow"
       markerWidth="6.1347523"
       markerHeight="5.9304953"
       viewBox="0 0 6.1347524 5.9304951"
       inkscape:isstock="true"
       inkscape:collect="always"
       preserveAspectRatio="xMidYMid"><path
         transform="scale(0.7)"
         d="m -0.21114562,-4.1055728 6.42229122,3.21114561 a 1,1 90 0 1 0,1.78885438 L -0.21114562,4.1055728 A 1.236068,1.236068 31.717474 0 1 -2,3 v -6 a 1.236068,1.236068 148.28253 0 1 1.78885438,-1.1055728 z"
         style="fill:context-stroke;fill-rule:evenodd;stroke:none"
         id="path1367-2" /></marker></defs><g
     inkscape:label="Layer 1"
     inkscape:groupmode="layer"
     id="layer1"><text
       xml:space="preserve"
       style="font-size:4.9389px;line-height:1.25;font-family:sans-serif;-inkscape-font-specification:sans-serif;stroke-width:0.264583"
       x="120.8801"
       y="51.896084"
       id="text1516"><tspan
         sodipodi:role="line"
         id="tspan1514"
         style="stroke-width:0.264583"
         x="120.8801"
         y="51.896084" /></text><text
       xml:space="preserve"
       style="font-size:4.9389px;line-height:1.5;font-family:monospace;-inkscape-font-specification:monospace;text-align:center;text-anchor:middle;stroke-width:0.264583"
       x="188.65453"
       y="31.36569"
       id="text16825"><tspan
         sodipodi:role="line"
         id="tspan16823"
         style="stroke-width:0.264583"
         x="188.65453"
         y="31.36569" /><tspan
         sodipodi:role="line"
         style="stroke-width:0.264583"
         x="188.65453"
         y="38.77404"
         id="tspan16827" /><tspan
         sodipodi:role="line"
         style="stroke-width:0.264583"
         x="188.65453"
         y="46.182388"
         id="tspan16829" /><tspan
         sodipodi:role="line"
         style="stroke-width:0.264583"
         x="188.65453"
         y="53.59074"
         id="tspan16831" /><tspan
         sodipodi:role="line"
         style="stroke-width:0.264583"
         x="188.65453"
         y="60.999092"
         id="tspan16833" /><tspan
         sodipodi:role="line"
         style="stroke-width:0.264583"
         x="188.65453"
         y="68.40744"
         id="tspan16835" /><tspan
         sodipodi:role="line"
         style="stroke-width:0.264583"
         x="188.65453"
         y="75.815788"
         id="tspan16837" /></text><text
       xml:space="preserve"
       style="font-size:9.87778px;line-height:1.3;font-family:sans-serif;-inkscape-font-specification:sans-serif;stroke-width:0.264583"
       x="10.399885"
       y="225.82344"
       id="text50380"><tspan
         sodipodi:role="line"
         style="font-size:9.87778px;stroke-width:0.264583"
         x="10.399885"
         y="225.82344"
         id="tspan125485">Le processeur contient lui-même plusieurs composants</tspan><tspan
         sodipodi:role="line"
         style="font-size:9.87778px;stroke-width:0.264583"
         x="10.399885"
         y="238.66455"
         id="tspan167329">- Une <tspan
   style="font-weight:bold"
   id="tspan167335">ALU</tspan> (unité de calcul arithmétique et logique)</tspan><tspan
         sodipodi:role="line"
         style="font-size:9.87778px;stroke-width:0.264583"
         x="10.399885"
         y="251.50566"
         id="tspan167337">- Une <tspan
   style="font-weight:bold"
   id="tspan167333">mémoire interne <tspan
   style="font-weight:normal"
   id="tspan167347">qui contient notamment des </tspan>registres</tspan></tspan><tspan
         sodipodi:role="line"
         style="font-size:9.87778px;stroke-width:0.264583"
         x="10.399885"
         y="264.34677"
         id="tspan113701">  - Un registre est une mémoire de <tspan
   style="font-weight:bold"
   id="tspan167355">taille fixe</tspan> (<tspan
   style="font-style:italic"
   id="tspan167584">e.g.</tspan>, 32 bits)</tspan><tspan
         sodipodi:role="line"
         style="font-size:9.87778px;stroke-width:0.264583"
         x="10.399885"
         y="277.1879"
         id="tspan167586">  - Chaque registre a un <tspan
   style="font-weight:bold"
   id="tspan167576">identifiant unique </tspan>(<tspan
   style="font-style:italic"
   id="tspan167580">e.g.</tspan>, <tspan
   style="font-style:normal;font-variant:normal;font-weight:normal;font-stretch:normal;font-family:monospace;-inkscape-font-specification:monospace"
   id="tspan167582">r0</tspan>)</tspan><tspan
         sodipodi:role="line"
         style="font-size:9.87778px;stroke-width:0.264583"
         x="10.399885"
         y="290.02902"
         id="tspan484064">  - D'autres données peuvent être stockées en mémoire interne (flags...)</tspan><tspan
         sodipodi:role="line"
         style="font-size:9.87778px;stroke-width:0.264583"
         x="10.399885"
         y="302.87012"
         id="tspan113703" /></text><text
       xml:space="preserve"
       style="font-style:normal;font-variant:normal;font-weight:bold;font-stretch:normal;font-size:10.5833px;line-height:1.25;font-family:sans-serif;-inkscape-font-specification:'sans-serif Bold';text-align:center;text-anchor:middle;stroke-width:0.264583"
       x="199.99225"
       y="18.05579"
       id="text41861"><tspan
         sodipodi:role="line"
         id="tspan41859"
         style="font-style:normal;font-variant:normal;font-weight:bold;font-stretch:normal;font-size:10.5833px;font-family:sans-serif;-inkscape-font-specification:'sans-serif Bold';text-align:center;text-anchor:middle;stroke-width:0.264583"
         x="199.99225"
         y="18.05579">CPU : composants internes</tspan></text><text
       xml:space="preserve"
       style="font-style:normal;font-variant:normal;font-weight:bold;font-stretch:normal;font-size:10.5804px;line-height:1.25;font-family:sans-serif;-inkscape-font-specification:'sans-serif Bold';text-align:center;text-anchor:middle;stroke-width:0.264582"
       x="107.38409"
       y="202.07489"
       id="text39162"
       transform="scale(0.99954491,1.0004553)"><tspan
         sodipodi:role="line"
         id="tspan39160"
         style="font-style:normal;font-variant:normal;font-weight:bold;font-stretch:normal;font-family:sans-serif;-inkscape-font-specification:'sans-serif Bold';text-align:center;text-anchor:middle;stroke-width:0.264582"
         x="107.38409"
         y="202.07489">Processeur</tspan></text><text
       xml:space="preserve"
       style="font-size:4.9389px;line-height:1.25;font-family:sans-serif;-inkscape-font-specification:sans-serif;stroke-width:0.264583"
       x="302.55777"
       y="61.873554"
       id="text1516-5"
       transform="rotate(-90)"><tspan
         sodipodi:role="line"
         id="tspan1514-3"
         style="stroke-width:0.264583"
         x="302.55777"
         y="61.873554" /></text><text
       xml:space="preserve"
       style="font-size:4.9389px;line-height:1.5;font-family:monospace;-inkscape-font-specification:monospace;text-align:center;text-anchor:middle;stroke-width:0.264583"
       x="370.33221"
       y="41.343159"
       id="text16825-5"
       transform="rotate(-90)"><tspan
         sodipodi:role="line"
         id="tspan16823-6"
         style="stroke-width:0.264583"
         x="370.33221"
         y="41.343159" /><tspan
         sodipodi:role="line"
         style="stroke-width:0.264583"
         x="370.33221"
         y="48.751511"
         id="tspan16827-2" /><tspan
         sodipodi:role="line"
         style="stroke-width:0.264583"
         x="370.33221"
         y="56.159859"
         id="tspan16829-9" /><tspan
         sodipodi:role="line"
         style="stroke-width:0.264583"
         x="370.33221"
         y="63.568207"
         id="tspan16831-1" /><tspan
         sodipodi:role="line"
         style="stroke-width:0.264583"
         x="370.33221"
         y="70.976562"
         id="tspan16833-2" /><tspan
         sodipodi:role="line"
         style="stroke-width:0.264583"
         x="370.33221"
         y="78.384911"
         id="tspan16835-7" /><tspan
         sodipodi:role="line"
         style="stroke-width:0.264583"
         x="370.33221"
         y="85.793259"
         id="tspan16837-0" /></text><text
       xml:space="preserve"
       transform="scale(0.26458333)"
       id="text106236"
       style="font-size:18.6667px;line-height:1.25;font-family:sans-serif;-inkscape-font-specification:sans-serif;white-space:pre;shape-inside:url(#rect106238);display:inline" /><text
       xml:space="preserve"
       transform="scale(0.26458333)"
       id="text109872"
       style="font-size:18.6667px;line-height:1.25;font-family:sans-serif;-inkscape-font-specification:sans-serif;white-space:pre;shape-inside:url(#rect109874);display:inline" /><rect
       style="fill:none;fill-opacity:1;stroke:#000000;stroke-width:1;stroke-dasharray:none;stroke-opacity:1"
       id="rect35304"
       width="166.36542"
       height="154.37349"
       x="24.623606"
       y="31.415159" /><g
       id="g32676"
       transform="matrix(2.1412879,0,0,2.1432382,-46.613581,-38.433261)"
       style="stroke-width:0.466796"><rect
         style="fill:#e5e5e5;fill-opacity:1;stroke:#000000;stroke-width:0.233398;stroke-dasharray:none;stroke-opacity:1"
         id="rect24974-35-6"
         width="71.578117"
         height="23.474062"
         x="36.32637"
         y="34.650425" /><text
         xml:space="preserve"
         style="font-size:4.9389px;line-height:1.25;font-family:sans-serif;-inkscape-font-specification:sans-serif;text-align:start;text-anchor:start;stroke-width:0.123506"
         x="51.530251"
         y="41.675243"
         id="text9502"><tspan
           sodipodi:role="line"
           id="tspan9500"
           style="font-style:normal;font-variant:normal;font-weight:bold;font-stretch:normal;font-family:sans-serif;-inkscape-font-specification:'sans-serif Bold';text-align:start;text-anchor:start;stroke-width:0.123506"
           x="51.530251"
           y="41.675243">Unité de calcul</tspan><tspan
           sodipodi:role="line"
           style="text-align:start;text-anchor:start;stroke-width:0.123506"
           x="51.530251"
           y="47.848869"
           id="tspan9504">- arithmétique</tspan><tspan
           sodipodi:role="line"
           style="text-align:start;text-anchor:start;stroke-width:0.123506"
           x="51.530251"
           y="54.022491"
           id="tspan9508">- logique</tspan></text></g><rect
       style="fill:#e5e5e5;fill-opacity:1;stroke:#000000;stroke-width:0.5;stroke-dasharray:none;stroke-opacity:1"
       id="rect24974-35"
       width="153.26936"
       height="65.510918"
       x="31.171635"
       y="111.88771" /><g
       id="g28230"
       transform="matrix(2.1412879,0,0,2.1432382,-52.687385,-69.985809)"
       style="stroke-width:0.466796"><rect
         style="fill:#f2f2f2;fill-opacity:1;stroke:#000000;stroke-width:0.233398;stroke-dasharray:none;stroke-opacity:1"
         id="rect24974-3-5"
         width="11.658313"
         height="9.0661182"
         x="42.598438"
         y="87.580963" /><text
         xml:space="preserve"
         style="font-style:normal;font-variant:normal;font-weight:normal;font-stretch:normal;font-size:4.9389px;line-height:1.25;font-family:monospace;-inkscape-font-specification:monospace;text-align:center;text-anchor:middle;stroke-width:0.123506"
         x="48.15147"
         y="102.2923"
         id="text27366"><tspan
           sodipodi:role="line"
           id="tspan27364"
           style="font-style:normal;font-variant:normal;font-weight:normal;font-stretch:normal;font-family:monospace;-inkscape-font-specification:monospace;text-align:center;text-anchor:middle;stroke-width:0.123506"
           x="48.15147"
           y="102.2923">r0</tspan></text></g><g
       id="g28235"
       transform="matrix(2.1412879,0,0,2.1432382,-51.378075,-67.660422)"
       style="stroke-width:0.466796"><rect
         style="fill:#f2f2f2;fill-opacity:1;stroke:#000000;stroke-width:0.233398;stroke-dasharray:none;stroke-opacity:1"
         id="rect24974-3-7"
         width="11.658313"
         height="9.0661182"
         x="57.314056"
         y="86.454033" /><text
         xml:space="preserve"
         style="font-style:normal;font-variant:normal;font-weight:normal;font-stretch:normal;font-size:4.9389px;line-height:1.25;font-family:monospace;-inkscape-font-specification:monospace;text-align:center;text-anchor:middle;stroke-width:0.123506"
         x="62.874321"
         y="101.16779"
         id="text27370"><tspan
           sodipodi:role="line"
           id="tspan27368"
           style="font-style:normal;font-variant:normal;font-weight:normal;font-stretch:normal;font-family:monospace;-inkscape-font-specification:monospace;text-align:center;text-anchor:middle;stroke-width:0.123506"
           x="62.874321"
           y="101.16779">r1</tspan></text></g><g
       id="g28240"
       transform="matrix(2.1412879,0,0,2.1432382,-44.433172,-67.480334)"
       style="stroke-width:0.466796"><rect
         style="fill:#f2f2f2;fill-opacity:1;stroke:#000000;stroke-width:0.233398;stroke-dasharray:none;stroke-opacity:1"
         id="rect24974-3-6"
         width="11.658313"
         height="9.0661182"
         x="69.397804"
         y="86.337341" /><text
         xml:space="preserve"
         style="font-style:normal;font-variant:normal;font-weight:normal;font-stretch:normal;font-size:4.9389px;line-height:1.25;font-family:monospace;-inkscape-font-specification:monospace;text-align:center;text-anchor:middle;stroke-width:0.123506"
         x="75.000275"
         y="101.08365"
         id="text27374"><tspan
           sodipodi:role="line"
           id="tspan27372"
           style="font-style:normal;font-variant:normal;font-weight:normal;font-stretch:normal;font-family:monospace;-inkscape-font-specification:monospace;text-align:center;text-anchor:middle;stroke-width:0.123506"
           x="75.000275"
           y="101.08365">r2</tspan></text></g><text
       xml:space="preserve"
       style="font-size:10.5804px;line-height:1.25;font-family:sans-serif;-inkscape-font-specification:sans-serif;text-align:center;text-anchor:middle;stroke-width:0.264582"
       x="140.69519"
       y="131.74327"
       id="text27378"
       transform="scale(0.99954491,1.0004553)"><tspan
         sodipodi:role="line"
         id="tspan27376"
         style="text-align:center;text-anchor:middle;stroke-width:0.264582"
         x="140.69519"
         y="131.74327">...</tspan></text><g
       id="g28245"
       style="stroke-width:0.466796"
       transform="matrix(2.1412879,0,0,2.1432382,-43.751333,-66.129972)"><rect
         style="fill:#f2f2f2;fill-opacity:1;stroke:#000000;stroke-width:0.233398;stroke-dasharray:none;stroke-opacity:1"
         id="rect24974-3"
         width="11.658313"
         height="9.0661182"
         x="91.47393"
         y="85.812965" /><text
         xml:space="preserve"
         style="font-style:normal;font-variant:normal;font-weight:normal;font-stretch:normal;font-size:4.9389px;line-height:1.25;font-family:monospace;-inkscape-font-specification:monospace;text-align:center;text-anchor:middle;stroke-width:0.123506"
         x="97.064339"
         y="100.49175"
         id="text28155"><tspan
           sodipodi:role="line"
           id="tspan28153"
           style="font-style:normal;font-variant:normal;font-weight:normal;font-stretch:normal;font-family:monospace;-inkscape-font-specification:monospace;text-align:center;text-anchor:middle;stroke-width:0.123506"
           x="97.064339"
           y="100.49175">r15</tspan></text></g><text
       xml:space="preserve"
       style="font-size:10.5804px;line-height:1.25;font-family:sans-serif;-inkscape-font-specification:sans-serif;text-align:center;text-anchor:middle;stroke-width:0.264582"
       x="107.6255"
       y="169.19395"
       id="text31879"
       transform="scale(0.99954491,1.0004553)"><tspan
         sodipodi:role="line"
         id="tspan31877"
         style="font-style:normal;font-variant:normal;font-weight:bold;font-stretch:normal;font-family:sans-serif;-inkscape-font-specification:'sans-serif Bold';text-align:center;text-anchor:middle;stroke-width:0.264582"
         x="107.6255"
         y="169.19395">Mémoire interne</tspan></text><path
       style="fill:none;stroke:#000000;stroke-width:0.999997;stroke-linecap:butt;stroke-linejoin:miter;stroke-dasharray:none;stroke-opacity:1;marker-start:url(#marker35172);marker-end:url(#RoundedArrow-2)"
       d="m 107.80631,93.840882 v 8.219388"
       id="path34943" /></g></svg>
