<?xml version="1.0" encoding="UTF-8" standalone="no"?>
<!-- Created with Inkscape (http://www.inkscape.org/) -->

<svg
   width="400mm"
   height="300mm"
   viewBox="0 0 400 300"
   version="1.1"
   id="svg5"
   inkscape:version="1.2.1 (9c6d41e410, 2022-07-14)"
   sodipodi:docname="slide-instr-2-0.svg"
   xml:space="preserve"
   xmlns:inkscape="http://www.inkscape.org/namespaces/inkscape"
   xmlns:sodipodi="http://sodipodi.sourceforge.net/DTD/sodipodi-0.dtd"
   xmlns="http://www.w3.org/2000/svg"
   xmlns:svg="http://www.w3.org/2000/svg"><sodipodi:namedview
     id="namedview7"
     pagecolor="#ffffff"
     bordercolor="#999999"
     borderopacity="1"
     inkscape:showpageshadow="0"
     inkscape:pageopacity="0"
     inkscape:pagecheckerboard="0"
     inkscape:deskcolor="#d1d1d1"
     inkscape:document-units="mm"
     showgrid="false"
     inkscape:zoom="0.55244701"
     inkscape:cx="728.57666"
     inkscape:cy="703.23487"
     inkscape:window-width="1916"
     inkscape:window-height="1032"
     inkscape:window-x="1920"
     inkscape:window-y="22"
     inkscape:window-maximized="1"
     inkscape:current-layer="layer1" /><defs
     id="defs2"><marker
       style="overflow:visible"
       id="RoundedArrow"
       refX="0"
       refY="0"
       orient="auto-start-reverse"
       inkscape:stockid="RoundedArrow"
       markerWidth="6.1347523"
       markerHeight="5.9304953"
       viewBox="0 0 6.1347524 5.9304951"
       inkscape:isstock="true"
       inkscape:collect="always"
       preserveAspectRatio="xMidYMid"><path
         transform="scale(0.7)"
         d="m -0.21114562,-4.1055728 6.42229122,3.21114561 a 1,1 90 0 1 0,1.78885438 L -0.21114562,4.1055728 A 1.236068,1.236068 31.717474 0 1 -2,3 v -6 a 1.236068,1.236068 148.28253 0 1 1.78885438,-1.1055728 z"
         style="fill:context-stroke;fill-rule:evenodd;stroke:none"
         id="path1367" /></marker><rect
       x="455.53807"
       y="1002.7096"
       width="362.55333"
       height="81.218572"
       id="rect109874" /><rect
       x="114.6643"
       y="950.16216"
       width="200.94723"
       height="147.30803"
       id="rect106238" /><marker
       style="overflow:visible"
       id="marker35172-8"
       refX="0"
       refY="0"
       orient="auto-start-reverse"
       inkscape:stockid="RoundedArrow"
       markerWidth="6.1347523"
       markerHeight="5.9304953"
       viewBox="0 0 6.1347524 5.9304951"
       inkscape:isstock="true"
       inkscape:collect="always"
       preserveAspectRatio="xMidYMid"><path
         transform="scale(0.7)"
         d="m -0.21114562,-4.1055728 6.42229122,3.21114561 a 1,1 90 0 1 0,1.78885438 L -0.21114562,4.1055728 A 1.236068,1.236068 31.717474 0 1 -2,3 v -6 a 1.236068,1.236068 148.28253 0 1 1.78885438,-1.1055728 z"
         style="fill:context-stroke;fill-rule:evenodd;stroke:none"
         id="path35170-9" /></marker><marker
       style="overflow:visible"
       id="RoundedArrow-2-2"
       refX="0"
       refY="0"
       orient="auto-start-reverse"
       inkscape:stockid="RoundedArrow"
       markerWidth="6.1347523"
       markerHeight="5.9304953"
       viewBox="0 0 6.1347524 5.9304951"
       inkscape:isstock="true"
       inkscape:collect="always"
       preserveAspectRatio="xMidYMid"><path
         transform="scale(0.7)"
         d="m -0.21114562,-4.1055728 6.42229122,3.21114561 a 1,1 90 0 1 0,1.78885438 L -0.21114562,4.1055728 A 1.236068,1.236068 31.717474 0 1 -2,3 v -6 a 1.236068,1.236068 148.28253 0 1 1.78885438,-1.1055728 z"
         style="fill:context-stroke;fill-rule:evenodd;stroke:none"
         id="path1367-2-6" /></marker></defs><g
     inkscape:label="Layer 1"
     inkscape:groupmode="layer"
     id="layer1"><text
       xml:space="preserve"
       style="font-size:4.9389px;line-height:1.25;font-family:sans-serif;-inkscape-font-specification:sans-serif;stroke-width:0.264583"
       x="120.8801"
       y="51.896084"
       id="text1516"><tspan
         sodipodi:role="line"
         id="tspan1514"
         style="stroke-width:0.264583"
         x="120.8801"
         y="51.896084" /></text><text
       xml:space="preserve"
       style="font-size:4.9389px;line-height:1.5;font-family:monospace;-inkscape-font-specification:monospace;text-align:center;text-anchor:middle;stroke-width:0.264583"
       x="188.65453"
       y="31.36569"
       id="text16825"><tspan
         sodipodi:role="line"
         id="tspan16823"
         style="stroke-width:0.264583"
         x="188.65453"
         y="31.36569" /><tspan
         sodipodi:role="line"
         style="stroke-width:0.264583"
         x="188.65453"
         y="38.77404"
         id="tspan16827" /><tspan
         sodipodi:role="line"
         style="stroke-width:0.264583"
         x="188.65453"
         y="46.182388"
         id="tspan16829" /><tspan
         sodipodi:role="line"
         style="stroke-width:0.264583"
         x="188.65453"
         y="53.59074"
         id="tspan16831" /><tspan
         sodipodi:role="line"
         style="stroke-width:0.264583"
         x="188.65453"
         y="60.999092"
         id="tspan16833" /><tspan
         sodipodi:role="line"
         style="stroke-width:0.264583"
         x="188.65453"
         y="68.40744"
         id="tspan16835" /><tspan
         sodipodi:role="line"
         style="stroke-width:0.264583"
         x="188.65453"
         y="75.815788"
         id="tspan16837" /></text><text
       xml:space="preserve"
       style="font-size:9.87778px;line-height:1.35;font-family:sans-serif;-inkscape-font-specification:sans-serif;stroke-width:0.264583"
       x="10.399885"
       y="223.2597"
       id="text50380"><tspan
         sodipodi:role="line"
         style="font-size:9.87778px;stroke-width:0.264583"
         x="10.399885"
         y="223.2597"
         id="tspan167586">Les instructions sont les <tspan
   style="font-weight:bold"
   id="tspan270183">opérations atomiques</tspan> qu'exécute le processeur</tspan><tspan
         sodipodi:role="line"
         style="font-size:9.87778px;stroke-width:0.264583"
         x="10.399885"
         y="236.59471"
         id="tspan226210">Elles peuvent être de plusieurs types :</tspan><tspan
         sodipodi:role="line"
         style="font-size:9.87778px;stroke-width:0.264583"
         x="10.399885"
         y="249.92972"
         id="tspan226212">- <tspan
   style="font-weight:bold"
   id="tspan325951">déplacement de données</tspan> (mém. externe ↔ registres, entre registres)</tspan><tspan
         sodipodi:role="line"
         style="font-size:9.87778px;stroke-width:0.264583"
         x="10.399885"
         y="263.26471"
         id="tspan113703">- <tspan
   style="font-weight:bold"
   id="tspan325953">calcul</tspan> (arithmétique, logique...)</tspan></text><text
       xml:space="preserve"
       style="font-style:normal;font-variant:normal;font-weight:bold;font-stretch:normal;font-size:10.5833px;line-height:1.25;font-family:sans-serif;-inkscape-font-specification:'sans-serif Bold';text-align:center;text-anchor:middle;stroke-width:0.264583"
       x="199.99225"
       y="18.05579"
       id="text41861"><tspan
         sodipodi:role="line"
         id="tspan41859"
         style="font-style:normal;font-variant:normal;font-weight:bold;font-stretch:normal;font-size:10.5833px;font-family:sans-serif;-inkscape-font-specification:'sans-serif Bold';text-align:center;text-anchor:middle;stroke-width:0.264583"
         x="199.99225"
         y="18.05579">CPU : instructions</tspan></text><text
       xml:space="preserve"
       style="font-style:normal;font-variant:normal;font-weight:bold;font-stretch:normal;font-size:10.5804px;line-height:1.25;font-family:sans-serif;-inkscape-font-specification:'sans-serif Bold';text-align:center;text-anchor:middle;stroke-width:0.264582"
       x="107.38409"
       y="202.07489"
       id="text39162"
       transform="scale(0.99954491,1.0004553)"><tspan
         sodipodi:role="line"
         id="tspan39160"
         style="font-style:normal;font-variant:normal;font-weight:bold;font-stretch:normal;font-family:sans-serif;-inkscape-font-specification:'sans-serif Bold';text-align:center;text-anchor:middle;stroke-width:0.264582"
         x="107.38409"
         y="202.07489">Processeur</tspan></text><text
       xml:space="preserve"
       style="font-size:4.9389px;line-height:1.25;font-family:sans-serif;-inkscape-font-specification:sans-serif;stroke-width:0.264583"
       x="302.55777"
       y="61.873554"
       id="text1516-5"
       transform="rotate(-90)"><tspan
         sodipodi:role="line"
         id="tspan1514-3"
         style="stroke-width:0.264583"
         x="302.55777"
         y="61.873554" /></text><text
       xml:space="preserve"
       style="font-size:4.9389px;line-height:1.5;font-family:monospace;-inkscape-font-specification:monospace;text-align:center;text-anchor:middle;stroke-width:0.264583"
       x="370.33221"
       y="41.343159"
       id="text16825-5"
       transform="rotate(-90)"><tspan
         sodipodi:role="line"
         id="tspan16823-6"
         style="stroke-width:0.264583"
         x="370.33221"
         y="41.343159" /><tspan
         sodipodi:role="line"
         style="stroke-width:0.264583"
         x="370.33221"
         y="48.751511"
         id="tspan16827-2" /><tspan
         sodipodi:role="line"
         style="stroke-width:0.264583"
         x="370.33221"
         y="56.159859"
         id="tspan16829-9" /><tspan
         sodipodi:role="line"
         style="stroke-width:0.264583"
         x="370.33221"
         y="63.568207"
         id="tspan16831-1" /><tspan
         sodipodi:role="line"
         style="stroke-width:0.264583"
         x="370.33221"
         y="70.976562"
         id="tspan16833-2" /><tspan
         sodipodi:role="line"
         style="stroke-width:0.264583"
         x="370.33221"
         y="78.384911"
         id="tspan16835-7" /><tspan
         sodipodi:role="line"
         style="stroke-width:0.264583"
         x="370.33221"
         y="85.793259"
         id="tspan16837-0" /></text><text
       xml:space="preserve"
       transform="scale(0.26458333)"
       id="text106236"
       style="font-size:18.6667px;line-height:1.25;font-family:sans-serif;-inkscape-font-specification:sans-serif;white-space:pre;shape-inside:url(#rect106238);display:inline" /><text
       xml:space="preserve"
       transform="scale(0.26458333)"
       id="text109872"
       style="font-size:18.6667px;line-height:1.25;font-family:sans-serif;-inkscape-font-specification:sans-serif;white-space:pre;shape-inside:url(#rect109874);display:inline" /><rect
       style="fill:none;fill-opacity:1;stroke:#000000;stroke-width:1;stroke-dasharray:none;stroke-opacity:1"
       id="rect35304-6"
       width="166.36542"
       height="154.37349"
       x="24.622419"
       y="31.415159" /><g
       id="g32676-4"
       transform="matrix(2.1412879,0,0,2.1432382,-46.614768,-38.433261)"
       style="stroke-width:0.466796"><rect
         style="fill:#e5e5e5;fill-opacity:1;stroke:#000000;stroke-width:0.233398;stroke-dasharray:none;stroke-opacity:1"
         id="rect24974-35-6-9"
         width="71.578117"
         height="23.474062"
         x="36.32637"
         y="34.650425" /><text
         xml:space="preserve"
         style="font-size:4.9389px;line-height:1.25;font-family:sans-serif;-inkscape-font-specification:sans-serif;text-align:start;text-anchor:start;stroke-width:0.123506"
         x="51.530251"
         y="41.675243"
         id="text9502-5"><tspan
           sodipodi:role="line"
           id="tspan9500-0"
           style="font-style:normal;font-variant:normal;font-weight:bold;font-stretch:normal;font-family:sans-serif;-inkscape-font-specification:'sans-serif Bold';text-align:start;text-anchor:start;stroke-width:0.123506"
           x="51.530251"
           y="41.675243">Unité de calcul</tspan><tspan
           sodipodi:role="line"
           style="text-align:start;text-anchor:start;stroke-width:0.123506"
           x="51.530251"
           y="47.848869"
           id="tspan9504-4">- arithmétique</tspan><tspan
           sodipodi:role="line"
           style="text-align:start;text-anchor:start;stroke-width:0.123506"
           x="51.530251"
           y="54.022491"
           id="tspan9508-8">- logique</tspan></text></g><rect
       style="fill:#e5e5e5;fill-opacity:1;stroke:#000000;stroke-width:0.5;stroke-dasharray:none;stroke-opacity:1"
       id="rect24974-35-7"
       width="153.26936"
       height="65.510918"
       x="31.170448"
       y="111.88771" /><rect
       style="fill:#f2f2f2;fill-opacity:1;stroke:#000000;stroke-width:0.5;stroke-dasharray:none;stroke-opacity:1"
       id="rect24974-3-5-7"
       width="24.963804"
       height="19.430851"
       x="38.526947"
       y="117.72105" /><text
       xml:space="preserve"
       style="font-style:normal;font-variant:normal;font-weight:normal;font-stretch:normal;font-size:10.5804px;line-height:1.25;font-family:monospace;-inkscape-font-specification:monospace;text-align:center;text-anchor:middle;stroke-width:0.264582"
       x="50.440544"
       y="149.18303"
       id="text27366-2"
       transform="scale(0.99954491,1.0004553)"><tspan
         sodipodi:role="line"
         id="tspan27364-7"
         style="font-style:normal;font-variant:normal;font-weight:normal;font-stretch:normal;font-family:monospace;-inkscape-font-specification:monospace;text-align:center;text-anchor:middle;stroke-width:0.264582"
         x="50.440544"
         y="149.18303">r0</tspan></text><g
       id="g28235-2"
       transform="matrix(2.1412879,0,0,2.1432382,-51.379262,-67.660422)"
       style="stroke-width:0.466796"><rect
         style="fill:#f2f2f2;fill-opacity:1;stroke:#000000;stroke-width:0.233398;stroke-dasharray:none;stroke-opacity:1"
         id="rect24974-3-7-2"
         width="11.658313"
         height="9.0661182"
         x="57.314056"
         y="86.454033" /><text
         xml:space="preserve"
         style="font-style:normal;font-variant:normal;font-weight:normal;font-stretch:normal;font-size:4.9389px;line-height:1.25;font-family:monospace;-inkscape-font-specification:monospace;text-align:center;text-anchor:middle;stroke-width:0.123506"
         x="62.874321"
         y="101.16779"
         id="text27370-6"><tspan
           sodipodi:role="line"
           id="tspan27368-1"
           style="font-style:normal;font-variant:normal;font-weight:normal;font-stretch:normal;font-family:monospace;-inkscape-font-specification:monospace;text-align:center;text-anchor:middle;stroke-width:0.123506"
           x="62.874321"
           y="101.16779">r1</tspan></text></g><g
       id="g28240-0"
       transform="matrix(2.1412879,0,0,2.1432382,-44.434359,-67.480334)"
       style="stroke-width:0.466796"><rect
         style="fill:#f2f2f2;fill-opacity:1;stroke:#000000;stroke-width:0.233398;stroke-dasharray:none;stroke-opacity:1"
         id="rect24974-3-6-6"
         width="11.658313"
         height="9.0661182"
         x="69.397804"
         y="86.337341" /><text
         xml:space="preserve"
         style="font-style:normal;font-variant:normal;font-weight:normal;font-stretch:normal;font-size:4.9389px;line-height:1.25;font-family:monospace;-inkscape-font-specification:monospace;text-align:center;text-anchor:middle;stroke-width:0.123506"
         x="75.000275"
         y="101.08365"
         id="text27374-1"><tspan
           sodipodi:role="line"
           id="tspan27372-5"
           style="font-style:normal;font-variant:normal;font-weight:normal;font-stretch:normal;font-family:monospace;-inkscape-font-specification:monospace;text-align:center;text-anchor:middle;stroke-width:0.123506"
           x="75.000275"
           y="101.08365">r2</tspan></text></g><text
       xml:space="preserve"
       style="font-size:10.5804px;line-height:1.25;font-family:sans-serif;-inkscape-font-specification:sans-serif;text-align:center;text-anchor:middle;stroke-width:0.264582"
       x="140.694"
       y="131.74327"
       id="text27378-9"
       transform="scale(0.99954491,1.0004553)"><tspan
         sodipodi:role="line"
         id="tspan27376-4"
         style="text-align:center;text-anchor:middle;stroke-width:0.264582"
         x="140.694"
         y="131.74327">...</tspan></text><g
       id="g28245-9"
       style="stroke-width:0.466796"
       transform="matrix(2.1412879,0,0,2.1432382,-43.75252,-66.129972)"><rect
         style="fill:#f2f2f2;fill-opacity:1;stroke:#000000;stroke-width:0.233398;stroke-dasharray:none;stroke-opacity:1"
         id="rect24974-3-0"
         width="11.658313"
         height="9.0661182"
         x="91.47393"
         y="85.812965" /><text
         xml:space="preserve"
         style="font-style:normal;font-variant:normal;font-weight:normal;font-stretch:normal;font-size:4.9389px;line-height:1.25;font-family:monospace;-inkscape-font-specification:monospace;text-align:center;text-anchor:middle;stroke-width:0.123506"
         x="97.064339"
         y="100.49175"
         id="text28155-9"><tspan
           sodipodi:role="line"
           id="tspan28153-1"
           style="font-style:normal;font-variant:normal;font-weight:normal;font-stretch:normal;font-family:monospace;-inkscape-font-specification:monospace;text-align:center;text-anchor:middle;stroke-width:0.123506"
           x="97.064339"
           y="100.49175">r15</tspan></text></g><text
       xml:space="preserve"
       style="font-size:10.5804px;line-height:1.25;font-family:sans-serif;-inkscape-font-specification:sans-serif;text-align:center;text-anchor:middle;stroke-width:0.264582"
       x="107.62431"
       y="169.19395"
       id="text31879-7"
       transform="scale(0.99954491,1.0004553)"><tspan
         sodipodi:role="line"
         id="tspan31877-7"
         style="font-style:normal;font-variant:normal;font-weight:bold;font-stretch:normal;font-family:sans-serif;-inkscape-font-specification:'sans-serif Bold';text-align:center;text-anchor:middle;stroke-width:0.264582"
         x="107.62431"
         y="169.19395">Mémoire interne</tspan></text><path
       style="fill:none;stroke:#000000;stroke-width:0.999997;stroke-linecap:butt;stroke-linejoin:miter;stroke-dasharray:none;stroke-opacity:1;marker-start:url(#marker35172-8);marker-end:url(#RoundedArrow-2-2)"
       d="m 107.80512,93.840882 v 8.219388"
       id="path34943-1" /><text
       xml:space="preserve"
       style="font-size:9.17222px;line-height:1.25;font-family:monospace;-inkscape-font-specification:monospace;stroke-width:0.264583"
       x="211.1344"
       y="122.03034"
       id="text270187"><tspan
         sodipodi:role="line"
         id="tspan270185"
         style="font-size:9.17222px;stroke-width:0.264583"
         x="211.1344"
         y="122.03034">0: mov [0x01], %r0</tspan><tspan
         sodipodi:role="line"
         style="font-size:9.17222px;stroke-width:0.264583"
         x="211.1344"
         y="133.49562"
         id="tspan294945">1: mov %r0, %r1</tspan><tspan
         sodipodi:role="line"
         style="font-size:9.17222px;stroke-width:0.264583"
         x="211.1344"
         y="144.96089"
         id="tspan293443">2: add $1, %r0</tspan><tspan
         sodipodi:role="line"
         style="font-size:9.17222px;stroke-width:0.264583"
         x="211.1344"
         y="156.42616"
         id="tspan277689">3: cmp $<tspan
   style="font-style:normal;font-variant:normal;font-weight:normal;font-stretch:normal;font-family:monospace;-inkscape-font-specification:'monospace Bold';fill:#000000"
   id="tspan94186">2</tspan>, %r0</tspan><tspan
         sodipodi:role="line"
         style="font-size:9.17222px;stroke-width:0.264583"
         x="211.1344"
         y="167.89145"
         id="tspan285191">4: jnz 2</tspan><tspan
         sodipodi:role="line"
         style="font-size:9.17222px;stroke-width:0.264583"
         x="211.1344"
         y="179.35672"
         id="tspan295697">5: syscall</tspan></text><text
       xml:space="preserve"
       style="font-size:4.9389px;line-height:1.25;font-family:sans-serif;-inkscape-font-specification:sans-serif;stroke-width:0.264583"
       x="309.42508"
       y="69.908028"
       id="text1516-1"><tspan
         sodipodi:role="line"
         id="tspan1514-5"
         style="stroke-width:0.264583"
         x="309.42508"
         y="69.908028" /></text><text
       xml:space="preserve"
       style="font-size:4.9389px;line-height:1.5;font-family:monospace;-inkscape-font-specification:monospace;text-align:center;text-anchor:middle;stroke-width:0.264583"
       x="377.19952"
       y="49.37764"
       id="text16825-9"><tspan
         sodipodi:role="line"
         id="tspan16823-7"
         style="stroke-width:0.264583"
         x="377.19952"
         y="49.37764" /><tspan
         sodipodi:role="line"
         style="stroke-width:0.264583"
         x="377.19952"
         y="56.785988"
         id="tspan16827-7" /><tspan
         sodipodi:role="line"
         style="stroke-width:0.264583"
         x="377.19952"
         y="64.194344"
         id="tspan16829-6" /><tspan
         sodipodi:role="line"
         style="stroke-width:0.264583"
         x="377.19952"
         y="71.602684"
         id="tspan16831-7" /><tspan
         sodipodi:role="line"
         style="stroke-width:0.264583"
         x="377.19952"
         y="79.01104"
         id="tspan16833-3" /><tspan
         sodipodi:role="line"
         style="stroke-width:0.264583"
         x="377.19952"
         y="86.419395"
         id="tspan16835-6" /><tspan
         sodipodi:role="line"
         style="stroke-width:0.264583"
         x="377.19952"
         y="93.827736"
         id="tspan16837-5" /></text><path
       id="rect12128-7"
       style="fill:#ffffff;stroke:#000000;stroke-width:1.25;stroke-dasharray:none"
       d="M 316.74372,52.749973 V 34.579169 h 55.49109 v 18.170804"
       sodipodi:nodetypes="cccc" /><path
       id="rect12128-7-5"
       style="fill:#ffffff;stroke:#000000;stroke-width:1.25;stroke-dasharray:none"
       d="M 316.74372,70.920777 V 52.749973 h 55.49109 v 18.170804"
       sodipodi:nodetypes="cccc" /><path
       id="rect12128-7-3"
       style="fill:#ffffff;stroke:#000000;stroke-width:1.25;stroke-dasharray:none"
       d="M 316.74372,89.091581 V 70.920777 h 55.49109 v 18.170804"
       sodipodi:nodetypes="cccc" /><path
       id="rect12128-7-56"
       style="fill:#ffffff;stroke:#000000;stroke-width:1.25;stroke-dasharray:none"
       d="M 316.74372,107.79819 V 89.627389 h 55.49109 v 18.170801"
       sodipodi:nodetypes="cccc" /><path
       id="rect12128-7-2"
       style="fill:#ffffff;stroke:#000000;stroke-width:1.25;stroke-dasharray:none"
       d="m 316.74372,108.334 h 55.49109"
       sodipodi:nodetypes="cc" /><path
       id="rect12128-7-1"
       style="fill:#ffffff;stroke:#000000;stroke-width:1.25;stroke-dasharray:none"
       d="m 372.23481,105.90922 v 79.80453 l -55.49081,2e-5 -2.8e-4,-79.80455"
       sodipodi:nodetypes="cccc" /><g
       aria-label=". . . . ."
       transform="matrix(0,2.1432382,-2.1412879,0,2.2099869,-33.531629)"
       id="text44675"
       style="font-size:4.9389px;line-height:1.25;-inkscape-font-specification:sans-serif;text-align:center;text-anchor:middle;stroke-width:0.123506"><path
         d="m 72.059655,-160.15366 h 0.508842 v 0.61254 h -0.508842 z"
         id="path44677"
         style="stroke-width:0.123506" /><path
         d="m 75.199522,-160.15366 h 0.508842 v 0.61254 h -0.508842 z"
         id="path44679"
         style="stroke-width:0.123506" /><path
         d="m 78.339389,-160.15366 h 0.508842 v 0.61254 h -0.508842 z"
         id="path44681"
         style="stroke-width:0.123506" /><path
         d="m 81.479257,-160.15366 h 0.508841 v 0.61254 h -0.508841 z"
         id="path44683"
         style="stroke-width:0.123506" /><path
         d="m 84.619124,-160.15366 h 0.508841 v 0.61254 h -0.508841 z"
         id="path44685"
         style="stroke-width:0.123506" /></g><text
       xml:space="preserve"
       style="font-style:normal;font-variant:normal;font-weight:bold;font-stretch:normal;font-size:10.5804px;line-height:1.25;font-family:sans-serif;-inkscape-font-specification:'sans-serif Bold';text-align:center;text-anchor:middle;stroke-width:0.264582"
       x="342.85492"
       y="202.07489"
       id="text39162-6"
       transform="scale(0.99954491,1.0004553)"><tspan
         sodipodi:role="line"
         id="tspan39160-3"
         style="font-style:normal;font-variant:normal;font-weight:bold;font-stretch:normal;font-family:sans-serif;-inkscape-font-specification:'sans-serif Bold';text-align:center;text-anchor:middle;stroke-width:0.264582"
         x="342.85492"
         y="202.07489">Mémoire externe</tspan></text><text
       xml:space="preserve"
       style="font-size:9.87777px;line-height:1.25;font-family:monospace;-inkscape-font-specification:monospace;text-align:center;text-anchor:middle;stroke-width:0.264583"
       x="344.48926"
       y="46.947716"
       id="text324441"><tspan
         sodipodi:role="line"
         id="tspan324439"
         style="text-align:center;text-anchor:middle;stroke-width:0.264583"
         x="344.48926"
         y="46.947716">00</tspan></text><text
       xml:space="preserve"
       style="font-size:9.87777px;line-height:1.25;font-family:monospace;-inkscape-font-specification:monospace;text-align:center;text-anchor:middle;stroke-width:0.264583"
       x="344.43863"
       y="64.219002"
       id="text324445"><tspan
         sodipodi:role="line"
         id="tspan324443"
         style="text-align:center;text-anchor:middle;stroke-width:0.264583"
         x="344.43863"
         y="64.219002">00</tspan></text><text
       xml:space="preserve"
       style="font-size:9.87777px;line-height:1.25;font-family:monospace;-inkscape-font-specification:monospace;text-align:center;text-anchor:middle;stroke-width:0.264583"
       x="344.31082"
       y="83.376137"
       id="text324449"><tspan
         sodipodi:role="line"
         id="tspan324447"
         style="text-align:center;text-anchor:middle;stroke-width:0.264583"
         x="344.31082"
         y="83.376137">2a</tspan></text><text
       xml:space="preserve"
       style="font-style:normal;font-variant:normal;font-weight:normal;font-stretch:normal;font-size:9.17222px;line-height:1.25;font-family:monospace;-inkscape-font-specification:monospace;text-align:center;text-anchor:middle;fill:#000000;stroke-width:0.264583"
       x="51.00885"
       y="130.7753"
       id="text336117"><tspan
         sodipodi:role="line"
         id="tspan336115"
         style="font-style:normal;font-variant:normal;font-weight:normal;font-stretch:normal;font-size:9.17222px;font-family:monospace;-inkscape-font-specification:monospace;text-align:center;text-anchor:middle;fill:#000000;stroke-width:0.264583"
         x="51.00885"
         y="130.7753">0</tspan></text><text
       xml:space="preserve"
       style="font-size:9.17222px;line-height:1.25;font-family:monospace;-inkscape-font-specification:monospace;text-align:center;text-anchor:middle;stroke-width:0.264583"
       x="83.828537"
       y="130.68541"
       id="text336117-8"><tspan
         sodipodi:role="line"
         id="tspan336115-1"
         style="font-size:9.17222px;text-align:center;text-anchor:middle;stroke-width:0.264583"
         x="83.828537"
         y="130.68541">0</tspan></text><path
       style="fill:none;stroke:#000000;stroke-width:1;stroke-linecap:butt;stroke-linejoin:miter;stroke-dasharray:none;stroke-opacity:1;marker-end:url(#RoundedArrow)"
       d="m 198.26396,142.07411 h 6.56488"
       id="path79003" /></g></svg>
